{
    "tracks": {
        "href": "https://api.spotify.com/v1/search?query=Back+That+Azz+Up&type=track&market=GB&locale=en-GB%2Cen%3Bq%3D0.5&offset=0&limit=2",
        "items": [
            {
                "album": {
                    "album_type": "album",
                    "artists": [
                        {
                            "external_urls": {
                                "spotify": "https://open.spotify.com/artist/0rG0AZBscc8S8q1ahIsasI"
                            },
                            "href": "https://api.spotify.com/v1/artists/0rG0AZBscc8S8q1ahIsasI",
                            "id": "0rG0AZBscc8S8q1ahIsasI",
                            "name": "JUVENILE",
                            "type": "artist",
                            "uri": "spotify:artist:0rG0AZBscc8S8q1ahIsasI"
                        }
                    ],
                    "external_urls": {
                        "spotify": "https://open.spotify.com/album/6wpqS71CJr3I0dLguYiZdJ"
                    },
                    "href": "https://api.spotify.com/v1/albums/6wpqS71CJr3I0dLguYiZdJ",
                    "id": "6wpqS71CJr3I0dLguYiZdJ",
                    "images": [
                        {
                            "height": 640,
                            "url": "https://i.scdn.co/image/ab67616d0000b273683fee123a35b36d53f21a58",
                            "width": 640
                        },
                        {
                            "height": 300,
                            "url": "https://i.scdn.co/image/ab67616d00001e02683fee123a35b36d53f21a58",
                            "width": 300
                        },
                        {
                            "height": 64,
                            "url": "https://i.scdn.co/image/ab67616d00004851683fee123a35b36d53f21a58",
                            "width": 64
                        }
                    ],
                    "is_playable": true,
                    "name": "400 Degreez",
                    "release_date": "1998-11-03",
                    "release_date_precision": "day",
                    "total_tracks": 18,
                    "type": "album",
                    "uri": "spotify:album:6wpqS71CJr3I0dLguYiZdJ"
                },
                "artists": [
                    {
                        "external_urls": {
                            "spotify": "https://open.spotify.com/artist/0rG0AZBscc8S8q1ahIsasI"
                        },
                        "href": "https://api.spotify.com/v1/artists/0rG0AZBscc8S8q1ahIsasI",
                        "id": "0rG0AZBscc8S8q1ahIsasI",
                        "name": "JUVENILE",
                        "type": "artist",
                        "uri": "spotify:artist:0rG0AZBscc8S8q1ahIsasI"
                    },
                    {
                        "external_urls": {
                            "spotify": "https://open.spotify.com/artist/55Aa2cqylxrFIXC767Z865"
                        },
                        "href": "https://api.spotify.com/v1/artists/55Aa2cqylxrFIXC767Z865",
                        "id": "55Aa2cqylxrFIXC767Z865",
                        "name": "Lil Wayne",
                        "type": "artist",
                        "uri": "spotify:artist:55Aa2cqylxrFIXC767Z865"
                    },
                    {
                        "external_urls": {
                            "spotify": "https://open.spotify.com/artist/0fbFfVckGKsDbAfYnB5mD1"
                        },
                        "href": "https://api.spotify.com/v1/artists/0fbFfVckGKsDbAfYnB5mD1",
                        "id": "0fbFfVckGKsDbAfYnB5mD1",
                        "name": "Mannie Fresh",
                        "type": "artist",
                        "uri": "spotify:artist:0fbFfVckGKsDbAfYnB5mD1"
                    }
                ],
                "disc_number": 1,
                "duration_ms": 265600,
                "explicit": true,
                "external_ids": {
                    "isrc": "USCM50200150"
                },
                "external_urls": {
                    "spotify": "https://open.spotify.com/track/6o2g1BJvtYQssH84kBYs7y"
                },
                "href": "https://api.spotify.com/v1/tracks/6o2g1BJvtYQssH84kBYs7y",
                "id": "6o2g1BJvtYQssH84kBYs7y",
                "is_local": false,
                "is_playable": true,
                "name": "Back That Azz Up",
                "popularity": 64,
                "preview_url": null,
                "track_number": 13,
                "type": "track",
                "uri": "spotify:track:6o2g1BJvtYQssH84kBYs7y"
            },
            {
                "album": {
                    "album_type": "album",
                    "artists": [
                        {
                            "external_urls": {
                                "spotify": "https://open.spotify.com/artist/44PA0rCQXikgOWbfY7Fq7m"
                            },
                            "href": "https://api.spotify.com/v1/artists/44PA0rCQXikgOWbfY7Fq7m",
                            "id": "44PA0rCQXikgOWbfY7Fq7m",
                            "name": "Ying Yang Twins",
                            "type": "artist",
                            "uri": "spotify:artist:44PA0rCQXikgOWbfY7Fq7m"
                        }
                    ],
                    "external_urls": {
                        "spotify": "https://open.spotify.com/album/0tkYbxsTPQ5kTVdrvj4S3f"
                    },
                    "href": "https://api.spotify.com/v1/albums/0tkYbxsTPQ5kTVdrvj4S3f",
                    "id": "0tkYbxsTPQ5kTVdrvj4S3f",
                    "images": [
                        {
                            "height": 640,
                            "url": "https://i.scdn.co/image/ab67616d0000b273123e64de8c798635904e0c60",
                            "width": 640
                        },
                        {
                            "height": 300,
                            "url": "https://i.scdn.co/image/ab67616d00001e02123e64de8c798635904e0c60",
                            "width": 300
                        },
                        {
                            "height": 64,
                            "url": "https://i.scdn.co/image/ab67616d00004851123e64de8c798635904e0c60",
                            "width": 64
                        }
                    ],
                    "is_playable": true,
                    "name": "U.S.A. (United State of Atlanta)",
                    "release_date": "2005-06-28",
                    "release_date_precision": "day",
                    "total_tracks": 23,
                    "type": "album",
                    "uri": "spotify:album:0tkYbxsTPQ5kTVdrvj4S3f"
                },
                "artists": [
                    {
                        "external_urls": {
                            "spotify": "https://open.spotify.com/artist/44PA0rCQXikgOWbfY7Fq7m"
                        },
                        "href": "https://api.spotify.com/v1/artists/44PA0rCQXikgOWbfY7Fq7m",
                        "id": "44PA0rCQXikgOWbfY7Fq7m",
                        "name": "Ying Yang Twins",
                        "type": "artist",
                        "uri": "spotify:artist:44PA0rCQXikgOWbfY7Fq7m"
                    },
                    {
                        "external_urls": {
                            "spotify": "https://open.spotify.com/artist/0TnOYISbd1XYRBk9myaseg"
                        },
                        "href": "https://api.spotify.com/v1/artists/0TnOYISbd1XYRBk9myaseg",
                        "id": "0TnOYISbd1XYRBk9myaseg",
                        "name": "Pitbull",
                        "type": "artist",
                        "uri": "spotify:artist:0TnOYISbd1XYRBk9myaseg"
                    }
                ],
                "disc_number": 1,
                "duration_ms": 241586,
                "explicit": true,
                "external_ids": {
                    "isrc": "USTV10500384"
                },
                "external_urls": {
                    "spotify": "https://open.spotify.com/track/5U1lQBg8zLFZCv9UzU6Noh"
                },
                "href": "https://api.spotify.com/v1/tracks/5U1lQBg8zLFZCv9UzU6Noh",
                "id": "5U1lQBg8zLFZCv9UzU6Noh",
                "is_local": false,
                "is_playable": true,
                "name": "Shake",
                "popularity": 53,
                "preview_url": "https://p.scdn.co/mp3-preview/c50214dd6347261d2a2c1366e646472efa6c3316?cid=cfe923b2d660439caf2b557b21f31221",
                "track_number": 19,
                "type": "track",
                "uri": "spotify:track:5U1lQBg8zLFZCv9UzU6Noh"
            }
        ],
        "limit": 2,
        "next": "https://api.spotify.com/v1/search?query=Back+That+Azz+Up&type=track&market=GB&locale=en-GB%2Cen%3Bq%3D0.5&offset=2&limit=2",
        "offset": 0,
        "previous": null,
        "total": 879
    }
}